Models
…
Models

Maggie Nead

7/13/2020

d <- data %>%
  filter(!is.na(TYPE))

d %>%
group_by(TYPE) %>%
tally

## # A tibble: 44 x 2
##    TYPE                              n
##    <chr>                         <int>
##  1 0                               116
##  2 1                            144162
##  3 2                             12790
##  4 3                             18855
##  5 4                              3322
##  6 5                             15122
##  7 6                              1065
##  8 congressional                   150
##  9 Congressional                   241
## 10 congressional - BP Info Only      1
## #  with 34 more rows
…
